﻿{
  "type": "service_account",
  "project_id": "ichibajp-1e02d",
  "private_key_id": "5c72de98751d1cf73b2292d54e722e679e324070",
  "private_key": "-----BEGIN PRIVATE KEY-----\nMIIEvAIBADANBgkqhkiG9w0BAQEFAASCBKYwggSiAgEAAoIBAQDLdGlO5/Tx5Dkn\nhI20BAP7/dx64Y/YOctJzRcYnmCqgP2TsZrQ4jKIq/ocpx5RfzQxNMpDizjRP2kv\n5BT+zR40yT9ggvdq+oeWR9DMl91sgdMSBVjnUMJoFQ7vwKIC17dorz5ZJ4xCNrth\nafYNpR1nLt5K/uvHbDKOtbRgZwUdhX/7tAumgY2oixYIo4NTccNGq717r/o5z5dU\ndy3cVt9NGjkxuDtM9yF6BWVTJ2OnEKjO5SdIl+S2SLFhU5x9kCZfJ3ELngIS7iCe\nZ/4bDpjcMaH6INzLGx7s+NT4NF48CTyrHjwqxHAMDK05g4ZU46AVJoKi7b6Owvfn\nxi692o1pAgMBAAECgf86wEyNAdLhrSo04AmV2D/7RKvP+cUAeXikRCFGZ6Yy4oXo\nnrklt9kM4DvGbrouQLG0PrWKpaDH0up2n4dbzrmf6PMS8MyutTDIqLKhMaFO2Hqg\nO09k1rRGA5djFqN6ylccuIUyIWS3icASe0NO7yLAqtsh+fRQDx03Wm5BN+1OVR0p\nb7V9NFKDCWh3WdX6dGK73CqP32t+4LGlMDvAzUQ4MY0OLwjzgR0WVML3BsIKGXmM\n1PrFQ+UB6EQMXOR4IuAundH2fYaaPd3x6g1Ec3uFzwUTX4UrJyHra9mvqv0GGfHH\nz8OabXSKlrKJPkqLnvg44hPSHc9t6T1m+qg4TIECgYEA9d7Nvnfv9vC2+Qe4AQtG\np5qZPg/GNXvryn6Hbk5X331xs88gPmy63F2DNRZWm5cg+qjXw+yFLNXnxL+lP7gS\nN4zMdUWBmDkoqjxhwOLb3v2/EAyLozmpPWKL4/meR1kEb1LLRkFS0cv1sWmb/1tG\nAVwXHfs79Tmb9m29ktpaC0ECgYEA09ZAA1x+0kQ28aLr6d9GOsVbcsyTm9Rf2zda\nX3kwpw7a2Y1ZLZ18CiiEHanoLg+iXrVPbpwzywgF2RuDv7IKz+7zoC0EeDkm+ZXo\nNPZwYXe0Jf6o8fcwfkq2jaXSBBzOTOxp+G4CfBReyO74zuhTC2+buknZ87ZIssGZ\nZvN+wCkCgYEA6hzb5agIeycb4qYh5ASbo03G6txUTGsRyr+OL08zxt+Im8D2n9oi\nV2BHZg4+K2rNAUAyKyGUcWvAg4xEShb4aaKMsIGdc5fBi89w+RxKZdtRyXNYpvRp\nnMSwFUSDHMa7PVEls2DR/mhqKyM3Yf/D+dl5PZgSsF7Jje1SnHmDUcECgYAGxY+Q\nS/Gl6RZUjR+7fy6wjESLG+0QCy7xRAi4ipg6jugCElmqcqFXdcobZKYOauOG4Ybj\ng0zIjb4aHZ4Nj7R2xy20jhvZeAI98kPVBZe8FeaFXGmsKnm7X8oMJyPai80welI8\n5c9ghgotpC4B9z1IXU3+G4RDHS2fwT6VIu2HWQKBgQDZT4VxuBw5srdvGBqv5QCE\nlzbEDjfpUgWJKSyEr46KtDqSvoVqiNFci4rk6qWVgTpogWvyERdti4StMH4LnbcU\newGMYHOiQOAtIUcKiCsgPHdlfBBbvU99DRSyTMlaiKeJ30mNahX/0ywGW0W/L6LO\nygrwrGQIlxsjx7dRj+ae0g==\n-----END PRIVATE KEY-----\n",
  "client_email": "firebase-adminsdk-v06pm@ichibajp-1e02d.iam.gserviceaccount.com",
  "client_id": "103073156263076072746",
  "auth_uri": "https://accounts.google.com/o/oauth2/auth",
  "token_uri": "https://oauth2.googleapis.com/token",
  "auth_provider_x509_cert_url": "https://www.googleapis.com/oauth2/v1/certs",
  "client_x509_cert_url": "https://www.googleapis.com/robot/v1/metadata/x509/firebase-adminsdk-v06pm%40ichibajp-1e02d.iam.gserviceaccount.com",
  "sender_id": "832233732138"
}
